^C:\USERS\300057157\RK.SIMPLECALCULATOR\X64\DEBUG\MAIN.OBJ
C:\USERS\300057157\RK.SIMPLECALCULATOR\X64\DEBUG\RK.SIMPLECALCULATOR.EXE
C:\USERS\300057157\RK.SIMPLECALCULATOR\X64\DEBUG\RK.SIMPLECALCULATOR.ILK
C:\USERS\300057157\RK.SIMPLECALCULATOR\X64\DEBUG\RK.SIMPLECALCULATOR.PDB
